…
remove <- c('quattro' = '', '4wd' = '', '2wd' = '', 'awd' = '')
remove_redundant <- mpg$model %>%
    ## str_remove_all must be used if we are to remove ALL occurrences
    str_remove_all(remove) %>%
    str_squish() %>%
    table() %>%
    ## Note that as.data.frame() will also work here if you wish to avoid tibbles
    as_tibble() %>%
    ## Renames column 1 and column 2; rename_at doesn't support concatenated inputs
    rename_at(1, ~'Model') %>% rename_at(2, ~'n') %>%
    ## Arranges the tibble by descending order of column 'n'
    arrange(desc(n)) %>%
    print()
    
#   A tibble: 37 x 2
#   Model                n
#   <chr>            <int>
#  1 a4                 15
#  2 caravan            11
#  3 ram 1500 pickup    10
#  4 civic               9
#  5 dakota pickup       9
#  6 jetta               9
#  7 mustang             9
#  8 grand cherokee      8
#  9 impreza             8
# 10 camry               7
#  ... with 27 more rows
```
…
